<?xml version="1.0" encoding="UTF-8" standalone="no"?>
<svg width="14px" height="10px" viewBox="0 0 14 10" version="1.1" xmlns="http://www.w3.org/2000/svg" xmlns:xlink="http://www.w3.org/1999/xlink">
    <!-- Generator: Sketch 39.1 (31720) - http://www.bohemiancoding.com/sketch -->
    <title>”</title>
    <desc>Created with Sketch.</desc>
    <defs></defs>
    <g id="Bouma-Copy" stroke="none" stroke-width="1" fill="none" fill-rule="evenodd" font-weight="bold" font-family="FreightTextProBold-Italic, FreightText Pro" letter-spacing="2" font-size="30" font-style="italic">
        <g id="Diensten-Copy-4" transform="translate(-555.000000, -2054.000000)" fill="#00508F">
            <g id="Group-2" transform="translate(554.000000, 2044.000000)">
                <text id="”">
                    <tspan x="0" y="30">”</tspan>
                </text>
            </g>
        </g>
    </g>
</svg>